{
  "version": 1,
  "dependencies": [
    {
      "source": {
        "git": {
          "remote": "https://github.com/brancz/kubernetes-grafana.git",
          "subdir": "grafana"
        }
      },
      "version": "d039275e4916aceae1c137120882e01d857787ac",
      "sum": "515vMn4x4tP8vegL4HLW0nDO5+njGTgnDZB5OOhtsCI="
    },
    {
      "source": {
        "git": {
          "remote": "https://github.com/etcd-io/etcd.git",
          "subdir": "contrib/mixin"
        }
      },
      "version": "30abf17f92e717fed5a4b2d32ed0eda0bfabf402",
      "sum": "IkDHlaE0gvvcPjSNurFT+jQ2aCOAbqHF1WVmXbAgkds="
    },
    {
      "source": {
        "git": {
          "remote": "https://github.com/grafana/grafana.git",
          "subdir": "grafana-mixin"
        }
      },
      "version": "1120f9e255760a3c104b57871fcb91801e934382",
      "sum": "MkjR7zCgq6MUZgjDzop574tFKoTX2OBr7DTwm1K+Ofs="
    },
    {
      "source": {
        "git": {
          "remote": "https://github.com/grafana/grafonnet-lib.git",
          "subdir": "grafonnet"
        }
      },
      "version": "30280196507e0fe6fa978a3e0eaca3a62844f817",
      "sum": "342u++/7rViR/zj2jeJOjshzglkZ1SY+hFNuyCBFMdc="
    },
    {
      "source": {
        "git": {
          "remote": "https://github.com/grafana/grafonnet-lib.git",
          "subdir": "grafonnet-7.0"
        }
      },
      "version": "30280196507e0fe6fa978a3e0eaca3a62844f817",
      "sum": "gCtR9s/4D5fxU9aKXg0Bru+/njZhA0YjLjPiASc61FM="
    },
    {
      "source": {
        "git": {
          "remote": "https://github.com/grafana/jsonnet-libs.git",
          "subdir": "grafana-builder"
        }
      },
      "version": "11a016eb688db0e9133bf7f78a5a149e3b063660",
      "sum": "tDR6yT2GVfw0wTU12iZH+m01HrbIr6g/xN+/8nzNkU0="
    },
    {
      "source": {
        "git": {
          "remote": "https://github.com/kubernetes-monitoring/kubernetes-mixin.git",
          "subdir": ""
        }
      },
      "version": "555203ad42bcd4a0a6d14a765bf071bc3247f60e",
      "sum": "NMyqYHiET2Vxg5QaMmuApyls/74Ea/fIp9TjJK3UPT0="
    },
    {
      "source": {
        "git": {
          "remote": "https://github.com/kubernetes/kube-state-metrics.git",
          "subdir": "jsonnet/kube-state-metrics"
        }
      },
      "version": "b76e410ec1ec9b645b3245ad52cff89ed3f44640",
      "sum": "4PJ2ROxODsoYO/1Y70+dgLZVjW5zlfzB+TDpxJBHwaI="
    },
    {
      "source": {
        "git": {
          "remote": "https://github.com/kubernetes/kube-state-metrics.git",
          "subdir": "jsonnet/kube-state-metrics-mixin"
        }
      },
      "version": "b76e410ec1ec9b645b3245ad52cff89ed3f44640",
      "sum": "u8gaydJoxEjzizQ8jY8xSjYgWooPmxw+wIWdDxifMAk="
    },
    {
      "source": {
        "git": {
          "remote": "https://github.com/prometheus-operator/prometheus-operator.git",
          "subdir": "jsonnet/mixin"
        }
      },
      "version": "d16abbd7c1d206f848911e22c4190211fe4d2ae8",
      "sum": "GQmaVFJwKMiD/P4n3N2LrAZVcwutriWrP8joclDtBYQ=",
      "name": "prometheus-operator-mixin"
    },
    {
      "source": {
        "git": {
          "remote": "https://github.com/prometheus-operator/prometheus-operator.git",
          "subdir": "jsonnet/prometheus-operator"
        }
      },
      "version": "d16abbd7c1d206f848911e22c4190211fe4d2ae8",
      "sum": "zto4POygMc0C/73TtP3GA3hQSIez18AXN/WmMlYwKs4="
    },
    {
      "source": {
        "git": {
          "remote": "https://github.com/prometheus/alertmanager.git",
          "subdir": "doc/alertmanager-mixin"
        }
      },
      "version": "14a265b71024b858dd8186bd6ace3f666f1e934c",
      "sum": "PsK+V7oETCPKu2gLoPfqY0wwPKH9TzhNj6o2xezjjXc=",
      "name": "alertmanager"
    },
    {
      "source": {
        "git": {
          "remote": "https://github.com/prometheus/node_exporter.git",
          "subdir": "docs/node-mixin"
        }
      },
      "version": "e608850dd039110b34cc96ccd3b661ee477720c3",
      "sum": "TwdaTm0Z++diiLyaKAAimmC6hBL7XbrJc0RHhBCpAdU="
    },
    {
      "source": {
        "git": {
          "remote": "https://github.com/prometheus/prometheus.git",
          "subdir": "documentation/prometheus-mixin"
        }
      },
      "version": "bc7ce50d8536a84041442673af25454c5147167e",
      "sum": "LRx0tbMnoE1p8KEn+i81j2YsA5Sgt3itE5Y6jBf5eOQ=",
      "name": "prometheus"
    },
    {
      "source": {
        "git": {
          "remote": "https://github.com/pyrra-dev/pyrra.git",
          "subdir": "config/crd/bases"
        }
      },
      "version": "e88234910527fe08f125f718319d1e9b93463ec5",
      "sum": "bY/Pcrrbynguq8/HaI88cQ3B2hLv/xc+76QILY7IL+g="
    },
    {
      "source": {
        "git": {
          "remote": "https://github.com/thanos-io/thanos.git",
          "subdir": "mixin"
        }
      },
      "version": "36de497d7bedef473e4282a59e5ce7134d938a38",
      "sum": "QIPkur4Hka3BId8ek3OkriAUKphk0mC/NORqJhFgxag=",
      "name": "thanos-mixin"
    },
    {
      "source": {
        "local": {
          "directory": "jsonnet/kube-prometheus"
        }
      },
      "version": ""
    }
  ],
  "legacyImports": false
}
