projectKey=first_project
serverUrl=http://51.250.30.54:9000
serverVersion=9.1.0.47736
dashboardUrl=http://51.250.30.54:9000/dashboard?id=first_project
ceTaskId=AYOThi3W1TJ2RVJkgH2X
ceTaskUrl=http://51.250.30.54:9000/api/ce/task?id=AYOThi3W1TJ2RVJkgH2X
